…
``` r
df_prob <- 
  expand_grid(n = 2:50) |>
  rowwise() |>
  mutate(prob = estimate_bdays_prob(n)) |>
  ungroup()

df_prob
```

    ## # A tibble: 49 × 2
    ##        n   prob
    ##    <int>  <dbl>
    ##  1     2 0.0032
    ##  2     3 0.0086
    ##  3     4 0.0159
    ##  4     5 0.0279
    ##  5     6 0.0362
    ##  6     7 0.0583
    ##  7     8 0.0816
    ##  8     9 0.0968
    ##  9    10 0.117 
    ## 10    11 0.136 
    ## # ℹ 39 more rows
…
df_city_summary <-
  df_homicide |>
  group_by(city_state) |>
  summarise(
    total_homicide = n(),
    unsolved_homicide = sum(disposition %in% c("Closed without arrest", "Open/No arrest"))
  )

df_city_summary
```

    ## # A tibble: 51 × 3
    ##    city_state      total_homicide unsolved_homicide
    ##    <chr>                    <int>             <int>
    ##  1 Albuquerque, NM            378               146
    ##  2 Atlanta, GA                973               373
    ##  3 Baltimore, MD             2827              1825
    ##  4 Baton Rouge, LA            424               196
    ##  5 Birmingham, AL             800               347
    ##  6 Boston, MA                 614               310
    ##  7 Buffalo, NY                521               319
    ##  8 Charlotte, NC              687               206
    ##  9 Chicago, IL               5535              4073
    ## 10 Cincinnati, OH             694               309
    ## # ℹ 41 more rows
…
